{"application_owner_request":
  { "date": "17-11-2016", "user_id": "usr_34675",
    "optimization_strategy":"violation minimization",

    "requests": [
      {"microservice": "ms1",
        "instance_mean": 10,
        "instance_var": 5.0,
        "qom_constraints":
         {"constraints":
            [{"dimension": "d0",
              "name": "status",
              "trans_policy": "none",
              "acc": "none", "prec": "none",
              "metrics":
                [{"metric": "m8",
                  "name": "CONT CPU Usage",
                  "sampling": 60000, "prec": "detailed"},
                 {"metric": "m5",
                  "name": "CONT Mem Usage",
                  "sampling": 300000, "prec": "detailed"}
                ]},
             {"dimension": "d1",
              "name": "Performance",
              "trans_policy": "ALL",
              "sampling": 60000, "prec": "detailed"},
             {"dimension": "d2",
              "name": "Sustainability",
              "trans_policy": "XOR",
              "sampling": 1800000, "prec": "trend"}
            ]}
        }
    ],

    "dep_constraints": [
      { "ms_list": ["ms1", "ms3", "ms4"], "type": "same"},
      { "ms_list": ["ms1", "ms2"], "type": "diff"},
      { "ms_list": ["ms1"], "type": "pref", "providers": ["cp3"]}
    ],

    "budget":{
      "currency": "$",
      "maxbudget": 1000, "estimated": 700
    }
  }
}
